…
# show the data frame
data_brfss_smart2010
```

    ## # A tibble: 10,625 × 21
    ##    year  state location  class  topic  question  response sample_size data_value
    ##    <chr> <chr> <chr>     <chr>  <chr>  <chr>     <fct>    <chr>            <dbl>
    ##  1 2002  IN    Marion C… Healt… Overa… How is y… Poor     26                 3.5
    ##  2 2002  GA    Fulton C… Healt… Overa… How is y… Fair     22                 6.8
    ##  3 2002  FL    Hillsbor… Healt… Overa… How is y… Poor     16                 4.2
    ##  4 2002  MI    Oakland … Healt… Overa… How is y… Very go… 173               38.3
    ##  5 2002  MS    Hinds Co… Healt… Overa… How is y… Very go… 89                28.8
    ##  6 2002  SD    Minnehah… Healt… Overa… How is y… Excelle… 193               23.5
    ##  7 2002  OH    Montgome… Healt… Overa… How is y… Excelle… 94                18.8
    ##  8 2002  TN    Shelby C… Healt… Overa… How is y… Excelle… 102               18.7
    ##  9 2002  DE    Sussex C… Healt… Overa… How is y… Fair     167               11  
    ## 10 2002  MD    Montgome… Healt… Overa… How is y… Very go… 221               34.7
    ## # … with 10,615 more rows, and 12 more variables: confidence_limit_low <chr>,
    ## #   confidence_limit_high <chr>, display_order <chr>, data_value_unit <chr>,
    ## #   data_value_type <chr>, data_source <chr>, class_id <chr>, topic_id <chr>,
    ## #   question_id <chr>, resp_id <chr>, data_value_footnote_symbol <chr>,
    ## #   data_value_footnote <chr>
…
